restarting server at time at 09-17-19:31-30
restarting server at time at 09-17-19:31-35
restarting server at time at 09-17-19:31-40
restarting server at time at 09-17-19:31-45
restarting server at time at 09-17-19:31-50
restarting server at time at 09-17-19:31-55
restarting server at time at 09-17-19:32-00
restarting server at time at 09-17-19:32-05
restarting server at time at 09-17-19:32-10
restarting server at time at 09-17-19:32-15
restarting server at time at 09-17-19:32-20
restarting server at time at 09-17-19:32-25
restarting server at time at 09-17-19:32-30
restarting server at time at 09-17-19:32-35
restarting server at time at 09-17-19:32-40
restarting server at time at 09-17-19:32-45
restarting server at time at 09-17-19:32-50
restarting server at time at 09-17-19:32-55
restarting server at time at 09-17-19:33-00
restarting server at time at 09-17-19:33-05
restarting server at time at 09-17-19:33-10
restarting server at time at 09-17-19:33-15
restarting server at time at 09-17-19:33-20
restarting server at time at 09-17-19:33-25
restarting server at time at 09-17-19:33-30
restarting server at time at 09-17-19:33-35
restarting server at time at 09-17-19:33-40
restarting server at time at 09-17-19:33-45
restarting server at time at 09-17-19:33-50
